[
  {
    "type": "MOD_INFO",
    "id": "Nancok_Early_Mutagen",
    "name": "Early mutagen",
    "description": "Modifies things recipes and spawn groups for mutagen related stuff as to make it more accessible early game. It also re-balances some mutations.",
    "category": "rebalancing",
    "authors": [ "Nancok" ],
	"dependencies": [ "dda" ]
  }
]
